%YAML 1.1
%TAG !u! tag:unity3d.com,2011:
--- !u!1045 &1
EditorBuildSettings:
  m_ObjectHideFlags: 0
  serializedVersion: 2
  m_Scenes:
  - enabled: 1
    path: Assets/Scenes/dragonHouse.unity
    guid: dc40bb00ff77aeb4e9b30b083c2cfc4a
  - enabled: 1
    path: Assets/Scenes/myNewScene.unity
    guid: 7210fec49064fc342acbed2250ff0a34
  m_configObjects: {}
